{
    "name": "GBInputActions",
    "maps": [
        {
            "name": "GB",
            "id": "6435161d-8627-4f43-8a8a-4d2265a802bb",
            "actions": [
                {
                    "name": "DPad",
                    "type": "Value",
                    "id": "631e5245-8f42-4b5c-8a9b-b000b983e132",
                    "expectedControlType": "Vector2",
                    "processors": "",
                    "interactions": "",
                    "initialStateCheck": true
                },
                {
                    "name": "DPad - Up",
                    "type": "Button",
                    "id": "b29955db-649e-4462-9bfe-592f455f9843",
                    "expectedControlType": "Button",
                    "processors": "",
                    "interactions": "",
                    "initialStateCheck": false
                },
                {
                    "name": "DPad - Down",
                    "type": "Button",
                    "id": "f7abf0b0-cb5d-4374-aa85-f37545bfdb9f",
                    "expectedControlType": "Button",
                    "processors": "",
                    "interactions": "",
                    "initialStateCheck": false
                },
                {
                    "name": "DPad - Right",
                    "type": "Button",
                    "id": "36988f44-ea11-4771-ade3-8b7bbb260323",
                    "expectedControlType": "Button",
                    "processors": "",
                    "interactions": "",
                    "initialStateCheck": false
                },
                {
                    "name": "DPad - Left",
                    "type": "Button",
                    "id": "c8cd1240-8cdd-4a60-9fb0-da9297f8407a",
                    "expectedControlType": "Button",
                    "processors": "",
                    "interactions": "",
                    "initialStateCheck": false
                },
                {
                    "name": "A",
                    "type": "Button",
                    "id": "8395b6a1-1caa-492b-8566-3c5610c3ccb8",
                    "expectedControlType": "Button",
                    "processors": "",
                    "interactions": "",
                    "initialStateCheck": false
                },
                {
                    "name": "B",
                    "type": "Button",
                    "id": "bb9eb4b3-d14c-4b9c-a625-10fc99726a31",
                    "expectedControlType": "Button",
                    "processors": "",
                    "interactions": "",
                    "initialStateCheck": false
                },
                {
                    "name": "Start",
                    "type": "Button",
                    "id": "fcfe51d3-9840-4353-b6ee-15ead181fc96",
                    "expectedControlType": "Button",
                    "processors": "",
                    "interactions": "",
                    "initialStateCheck": false
                },
                {
                    "name": "Select",
                    "type": "Button",
                    "id": "e262f27e-f3f2-42e9-b084-291090cd246c",
                    "expectedControlType": "Button",
                    "processors": "",
                    "interactions": "",
                    "initialStateCheck": false
                }
            ],
            "bindings": [
                {
                    "name": "WASD",
                    "id": "4a331e0a-ba1d-4f84-9852-d610e5d594fe",
                    "path": "2DVector",
                    "interactions": "",
                    "processors": "",
                    "groups": "",
                    "action": "DPad",
                    "isComposite": true,
                    "isPartOfComposite": false
                },
                {
                    "name": "up",
                    "id": "d3ee785d-5fc8-4dec-81fc-d0293ddeea00",
                    "path": "<Keyboard>/w",
                    "interactions": "",
                    "processors": "",
                    "groups": "",
                    "action": "DPad",
                    "isComposite": false,
                    "isPartOfComposite": true
                },
                {
                    "name": "down",
                    "id": "8cabde85-600c-4bed-8c1b-c090b819d9b2",
                    "path": "<Keyboard>/s",
                    "interactions": "",
                    "processors": "",
                    "groups": "",
                    "action": "DPad",
                    "isComposite": false,
                    "isPartOfComposite": true
                },
                {
                    "name": "left",
                    "id": "fd2034e3-4859-4b98-a715-432b69db0b57",
                    "path": "<Keyboard>/a",
                    "interactions": "",
                    "processors": "",
                    "groups": "",
                    "action": "DPad",
                    "isComposite": false,
                    "isPartOfComposite": true
                },
                {
                    "name": "right",
                    "id": "f24990eb-8c3a-4464-ab64-417410c17bd3",
                    "path": "<Keyboard>/d",
                    "interactions": "",
                    "processors": "",
                    "groups": "",
                    "action": "DPad",
                    "isComposite": false,
                    "isPartOfComposite": true
                },
                {
                    "name": "Directional Arrows",
                    "id": "54fb1b31-eeb5-40d9-ad2f-9484c7b295e9",
                    "path": "2DVector",
                    "interactions": "",
                    "processors": "",
                    "groups": "",
                    "action": "DPad",
                    "isComposite": true,
                    "isPartOfComposite": false
                },
                {
                    "name": "up",
                    "id": "214fd1b0-e402-4210-9731-f185ee663106",
                    "path": "<Keyboard>/upArrow",
                    "interactions": "",
                    "processors": "",
                    "groups": "",
                    "action": "DPad",
                    "isComposite": false,
                    "isPartOfComposite": true
                },
                {
                    "name": "down",
                    "id": "220159a4-4847-459f-9ce1-20756e2eb627",
                    "path": "<Keyboard>/downArrow",
                    "interactions": "",
                    "processors": "",
                    "groups": "",
                    "action": "DPad",
                    "isComposite": false,
                    "isPartOfComposite": true
                },
                {
                    "name": "left",
                    "id": "b4b0dfce-554a-4b54-a1aa-2a052674c8e6",
                    "path": "<Keyboard>/leftArrow",
                    "interactions": "",
                    "processors": "",
                    "groups": "",
                    "action": "DPad",
                    "isComposite": false,
                    "isPartOfComposite": true
                },
                {
                    "name": "right",
                    "id": "754ad967-f7b6-4852-8612-c3d6c7b1f01f",
                    "path": "<Keyboard>/rightArrow",
                    "interactions": "",
                    "processors": "",
                    "groups": "",
                    "action": "DPad",
                    "isComposite": false,
                    "isPartOfComposite": true
                },
                {
                    "name": "",
                    "id": "b111912a-a230-44dd-8c57-1d1f615f9655",
                    "path": "<Mouse>/leftButton",
                    "interactions": "",
                    "processors": "",
                    "groups": "",
                    "action": "A",
                    "isComposite": false,
                    "isPartOfComposite": false
                },
                {
                    "name": "",
                    "id": "7608ee5b-0a70-4e24-adbc-0543ae435176",
                    "path": "<Mouse>/rightButton",
                    "interactions": "",
                    "processors": "",
                    "groups": "",
                    "action": "B",
                    "isComposite": false,
                    "isPartOfComposite": false
                },
                {
                    "name": "",
                    "id": "10cfd961-e98b-4486-9891-3ea746452b29",
                    "path": "<Keyboard>/escape",
                    "interactions": "",
                    "processors": "",
                    "groups": "",
                    "action": "Start",
                    "isComposite": false,
                    "isPartOfComposite": false
                },
                {
                    "name": "",
                    "id": "3a1dad47-d587-45b2-ba14-5b232e30242a",
                    "path": "<Keyboard>/space",
                    "interactions": "",
                    "processors": "",
                    "groups": "",
                    "action": "Select",
                    "isComposite": false,
                    "isPartOfComposite": false
                },
                {
                    "name": "",
                    "id": "00f9f74f-544d-4059-ab3b-b04c6a29165f",
                    "path": "<Keyboard>/w",
                    "interactions": "",
                    "processors": "",
                    "groups": "",
                    "action": "DPad - Up",
                    "isComposite": false,
                    "isPartOfComposite": false
                },
                {
                    "name": "",
                    "id": "1867ed56-a1d8-4a67-aa83-fcb2886e65fd",
                    "path": "<Keyboard>/s",
                    "interactions": "",
                    "processors": "",
                    "groups": "",
                    "action": "DPad - Down",
                    "isComposite": false,
                    "isPartOfComposite": false
                },
                {
                    "name": "",
                    "id": "ae4fe1ce-67f1-4843-8111-1b93388fece7",
                    "path": "<Keyboard>/a",
                    "interactions": "",
                    "processors": "",
                    "groups": "",
                    "action": "DPad - Left",
                    "isComposite": false,
                    "isPartOfComposite": false
                },
                {
                    "name": "",
                    "id": "9199f148-1d13-411f-92bb-c1ff48aa9911",
                    "path": "<Keyboard>/d",
                    "interactions": "",
                    "processors": "",
                    "groups": "",
                    "action": "DPad - Right",
                    "isComposite": false,
                    "isPartOfComposite": false
                }
            ]
        }
    ],
    "controlSchemes": []
}